{
    "/notebooks/{entity_id}": {
        "get": {
            "operationId": 1,
            "summary": "",
            "description": "Get list from public token",
            "parameters": [
                {
                    "description": "ID in URL",
                    "in": "path",
                    "name": "entity_id",
                    "required": true,
                    "schema": {
                        "type": "string"
                    },
                    "example": "1b6a83a918438b"
                },
                {
                    "description": "Language letter code (depending on setup: en, es, de, ar, eng, spa, es_AR, en_US)",
                    "in": "header",
                    "name": "Accept-Language",
                    "example": "en",
                    "required": false,
                    "schema": {
                        "type": "string"
                    }
                }
            ],
            "tags": [
                "NotebooksPublicList"
            ],
            "responses": {
                "200": {
                    "description": "OK",
                    "content": {
                        "application/json": {
                            "schema": {
                                "type": "object",
                                "description": "Get list from public token",
                                "properties": {
                                    "data": {
                                        "type": "object",
                                        "properties": {
                                            "id": {
                                                "type": "number",
                                                "example": 2
                                            },
                                            "title": {
                                                "type": "string",
                                                "example": "Private list"
                                            },
                                            "user_id": {
                                                "type": "number",
                                                "example": 3
                                            },
                                            "shape": {
                                                "type": "string",
                                                "example": "list"
                                            },
                                            "icon": {
                                                "type": "string",
                                                "example": "mdi-clipboard-list-outline"
                                            },
                                            "created": {
                                                "type": "string",
                                                "example": "2021-01-18T10:39:23+01:00"
                                            },
                                            "modified": {
                                                "type": "string",
                                                "example": "2021-01-18T10:41:31+01:00"
                                            },
                                            "public_key": {
                                                "type": "string",
                                                "example": "1b6a83a918438b"
                                            },
                                            "notes": {
                                                "type": "array",
                                                "items": {
                                                    "type": "object",
                                                    "properties": {
                                                        "id": {
                                                            "type": "number",
                                                            "example": 4
                                                        },
                                                        "notebook_id": {
                                                            "type": "number",
                                                            "example": 2
                                                        },
                                                        "title": {
                                                            "type": "string",
                                                            "example": "Event 1 from Wish list 1"
                                                        },
                                                        "date": {
                                                            "type": "string",
                                                            "example": "2021-01-20T19:39:23+01:00"
                                                        },
                                                        "description": {
                                                            "type": "string",
                                                            "example": ""
                                                        },
                                                        "completed": {
                                                            "type": "string",
                                                            "example": ""
                                                        },
                                                        "image": {
                                                            "type": "string",
                                                            "example": "https://img.rawpixel.com/private/static/images/website/2022-05/fl12929410165-image-kybeoc61.jpg?w=800&dpr=1&fit=default&crop=default&q=65&vib=3&con=3&usm=15&bg=F4F4F3&ixlib=js-2.2.1&s=8d6e7f2dee775c830a74c4e0af9f0460"
                                                        },
                                                        "url": {
                                                            "type": "string",
                                                            "example": "https://www.courseticket.com/en/e/50"
                                                        },
                                                        "position": {
                                                            "type": "number",
                                                            "example": 2
                                                        },
                                                        "created": {
                                                            "type": "string",
                                                            "example": "2021-01-18T10:39:23+01:00"
                                                        },
                                                        "modified": {
                                                            "type": "string",
                                                            "example": "2021-01-18T10:41:31+01:00"
                                                        }
                                                    }
                                                }
                                            }
                                        }
                                    }
                                }
                            }
                        }
                    }
                }
            }
        }
    }
}